{
  "$schema": "../../node_modules/ng-packagr/ng-package.schema.json",
  "dest": "../../dist/ngx-modular-dashboard",
  "lib": {
    "entryFile": "src/public-api.ts"
  },
  "allowedNonPeerDependencies": [
    "tslib",
    "@angular/common",
    "@angular/cdk",
    "@angular/core",
    "@angular/flex-layout",
    "@angular/forms",
    "@angular/material",
    "@angular/material-moment-adapter",
    "@angular/router",
    "@auth0/angular-jwt",
    "@angular/platform-browser",
    "@angular/animations",
    "angular-resize-event",
    "lottie-web",
    "moment",
    "ngx-lottie",
    "ngx-mat-multi-sort",
    "ngx-scrollbar",
    "rxjs",
    "uuid",
    "zone.js"
  ]
}
